{
    "appidkey": "Project00b76ba33e",
    "mwaddrkey": "",
    "isNewAppWithRespectToAndroidPackageName": "",
    "defaulttheme": "defaultTheme",
    "apppackagekey": "",
    "appaddrkey": "",
    "nativeContainerProperties": {
        "isModified": true,
        "isEnableJSContainer": false,
        "isEnableJSContainerAndroid": false,
        "isEnableJSContaineriOS": false
    },
    "appnamekey": "Sample",
    "currentgaversion": "7.3.0.15",
    "appversionkey": "1.0.0",
    "project.type": "js",
    "startupformkey": "Home",
    "vendornamekey": "KonyLabs",
    "createdgaversion": "6.9.0",
    "konyVizVersion": "7.3.0.15",
    "isDpScaleFactor": true,
    "referenceWidth": "375",
    "winmobileguidkey": "",
    "APPLICATION_THEME": "default",
    "build": "debug",
    "mastersProperties": {
        "mastersVersion": "1.0.0"
    },
    "appmenu": {
        "tablet": {
            "data": [
                {
                    "windows8": {
                        "appBarButtonStyle": "No Style",
                        "position": "BOTTOM_LEFT"
                    },
                    "kuid": "4617bd4afbab45f19d9c3d727177867a",
                    "icon": {
                        "default": "option1.png"
                    },
                    "id": "appmenuitemid1",
                    "title": "Item 1"
                },
                {
                    "windows8": {
                        "appBarButtonStyle": "No Style",
                        "position": "BOTTOM_LEFT"
                    },
                    "kuid": "2a440461a73f49469f69d114a3844d16",
                    "icon": {
                        "default": "option2.png"
                    },
                    "id": "appmenuitemid2",
                    "title": "Item 2"
                },
                {
                    "windows8": {
                        "appBarButtonStyle": "No Style",
                        "position": "BOTTOM_LEFT"
                    },
                    "kuid": "ca9757563deb46d3b83799fbc2ff56e1",
                    "icon": {
                        "default": "option3.png"
                    },
                    "id": "appmenuitemid3",
                    "title": "Item 3"
                },
                {
                    "windows8": {
                        "appBarButtonStyle": "No Style",
                        "position": "BOTTOM_LEFT"
                    },
                    "kuid": "b586ee1e85044d1d9386651e312c9b33",
                    "icon": {
                        "default": "option4.png"
                    },
                    "id": "appmenuitemid4",
                    "title": "Item 4"
                }
            ]
        },
        "desktop": {
            "data": [
                {
                    "kuid": "61274da2116b489a9898fe8a036b606c",
                    "icon": {
                        "default": "option1.png"
                    },
                    "id": "appmenuitemid1",
                    "title": "Item 1"
                },
                {
                    "kuid": "36f4d371d6a244aca8eb898e97193bda",
                    "icon": {
                        "default": "option2.png"
                    },
                    "id": "appmenuitemid2",
                    "title": "Item 2"
                },
                {
                    "kuid": "7d9236af92e243699e192110b00a5c6c",
                    "icon": {
                        "default": "option3.png"
                    },
                    "id": "appmenuitemid3",
                    "title": "Item 3"
                },
                {
                    "kuid": "a9678b180bfc4f829ee1d2d2072a260a",
                    "icon": {
                        "default": "option4.png"
                    },
                    "id": "appmenuitemid4",
                    "title": "Item 4"
                }
            ]
        },
        "focusskin": null,
        "osVersion": "iOS7",
        "wType": "Appmenu",
        "focusSkin": null,
        "mobile": {
            "data": [
                {
                    "kuid": "0145b9512a754c929af9a5b9bba4d8ae",
                    "icon": {
                        "default": "option1.png"
                    },
                    "id": "appmenuitemid1",
                    "title": "Item 1"
                },
                {
                    "kuid": "cbaf3ecdc88942a1948a6bf26ba8ef97",
                    "icon": {
                        "default": "option2.png"
                    },
                    "id": "appmenuitemid2",
                    "title": "Item 2"
                },
                {
                    "kuid": "8846c145c86f44dba57a839ed8d6bf54",
                    "icon": {
                        "default": "option3.png"
                    },
                    "id": "appmenuitemid3",
                    "title": "Item 3"
                },
                {
                    "kuid": "01836052317543d0b8552657bc080566",
                    "icon": {
                        "default": "option4.png"
                    },
                    "id": "appmenuitemid4",
                    "title": "Item 4"
                }
            ]
        },
        "skin": null,
        "osPlatform": ""
    },
    "project_version": "sprint27",
    "mwportkey": "",
    "category": "app",
    "createdVizVersion": "2.9.0",
    "mwhttpsportkey": ""
}